{
  "html_attributions": [],
  "next_page_token": "Aap_uEA5N7Tc2divaoP2vkUFnjdsZvJZSfsMbSE91BLAygWGypTOgXIEiPJ1PAH_oHkfVQmTf4ajCpeHFNjYRORjR3clbjzp5FDvPTNRlns1aA6G6QgOUNJfWp3JyRAlZYiQ_JdZiocUmXWI1GWaQk7zETvgO8Cz1Ipr9cHvP_y8TCGXkFnTO8GHz7ejQXHNbh-o4qhKLJIrYm7jjbTi_gPrwFSWtGeWIVZN8zP7hfqX4EiDzsM-8oLrivdTnnWNNu02remxM_HwFzn_JO-pIjLQvudT_PA_IQuW_pSGwXJ44mxndo7EI1CtC8PWXJgx_V-MUp6fqrJPBy3P4J7UU9b_vbF-WSKre77heaLnOxtGAClF9RdKHRwCkvoVVwOFkLcr7vN8CaJnaf1Zb39HWaBEqqDYbPWV32plfAfX1uOMVQZnYtv7aDo55R6cnYOB",
  "results": [
    {
      "business_status": "OPERATIONAL",
      "geometry": {
        "location": {
          "lat": 59.342118,
          "lng": 18.0590363
        },
        "viewport": {
          "northeast": {
            "lat": 59.3434727802915,
            "lng": 18.0603303802915
          },
          "southwest": {
            "lat": 59.34077481970849,
            "lng": 18.0576324197085
          }
        }
      },
      "icon": "https://maps.gstatic.com/mapfiles/place_api/icons/v1/png_71/restaurant-71.png",
      "icon_background_color": "#FF9E67",
      "icon_mask_base_uri": "https://maps.gstatic.com/mapfiles/place_api/icons/v2/restaurant_pinlet",
      "name": "Lao Wai",
      "opening_hours": {
        "open_now": false
      },
      "photos": [
        {
          "height": 2268,
          "html_attributions": [
            "<a href=\"https://maps.google.com/maps/contrib/107251085986371108692\">Miruna Cristus</a>"
          ],
          "photo_reference": "Aap_uEAycGm_wwH_1xTGS5Ylx3pDxtFW54toSj9jfF2_tBm-Ey-bUTDs3YKjscdxSk-c7iHgd_JY-iqwP3lnI6aTgatd4QL6QUDLQPkvx52BEq_5P77EYYw2Kev6m06XlsHcFPcr53P94QV8nvbSw1qrnSKZYMTtoQ0purfL4xDs6xuE3qje",
          "width": 4032
        }
      ],
      "place_id": "ChIJoQvt1GidX0YRedUwdvkJL_w",
      "plus_code": {
        "compound_code": "83R5+RJ Stockholm, Sweden",
        "global_code": "9FFW83R5+RJ"
      },
      "price_level": 2,
      "rating": 4.5,
      "reference": "ChIJoQvt1GidX0YRedUwdvkJL_w",
      "scope": "GOOGLE",
      "types": [
        "restaurant",
        "food",
        "point_of_interest",
        "establishment"
      ],
      "user_ratings_total": 602,
      "vicinity": "Luntmakargatan 74, Stockholm"
    },
    {
      "business_status": "OPERATIONAL",
      "geometry": {
        "location": {
          "lat": 59.34281499999999,
          "lng": 18.061486
        },
        "viewport": {
          "northeast": {
            "lat": 59.34419068029151,
            "lng": 18.0628908802915
          },
          "southwest": {
            "lat": 59.3414927197085,
            "lng": 18.06019291970849
          }
        }
      },
      "icon": "https://maps.gstatic.com/mapfiles/place_api/icons/v1/png_71/restaurant-71.png",
      "icon_background_color": "#FF9E67",
      "icon_mask_base_uri": "https://maps.gstatic.com/mapfiles/place_api/icons/v2/restaurant_pinlet",
      "name": "Sue Ellen",
      "opening_hours": {
        "open_now": false
      },
      "photos": [
        {
          "height": 3741,
          "html_attributions": [
            "<a href=\"https://maps.google.com/maps/contrib/110792796204762664918\">Restaurang Sue Ellen</a>"
          ],
          "photo_reference": "Aap_uEDveXb9NOuU8mIweXzIF8GiHXLhXNsU6a0b487g0vZDAYP0YOq-HxrXcM0HcEtAO5RmveaLgGQiL2Ujff_ZBvqRbzPtT5Gn3xxfPc1RIVKtYj5alA3tEmgUYUC3S6uplwZ65LXvy7_g8N9czomE6vU1JBvjQUEnIi_cKjF-jF_nZ2Xz",
          "width": 3741
        }
      ],
      "place_id": "ChIJ289uGWmdX0YRjLIxihNQdzA",
      "plus_code": {
        "compound_code": "83V6+4H Stockholm, Sweden",
        "global_code": "9FFW83V6+4H"
      },
      "price_level": 2,
      "rating": 4.2,
      "reference": "ChIJ289uGWmdX0YRjLIxihNQdzA",
      "scope": "GOOGLE",
      "types": [
        "restaurant",
        "food",
        "point_of_interest",
        "establishment"
      ],
      "user_ratings_total": 612,
      "vicinity": "Tulegatan 17, Stockholm"
    },
    {
      "business_status": "OPERATIONAL",
      "geometry": {
        "location": {
          "lat": 59.33891679999999,
          "lng": 18.0561848
        },
        "viewport": {
          "northeast": {
            "lat": 59.3402774802915,
            "lng": 18.0576202802915
          },
          "southwest": {
            "lat": 59.33757951970849,
            "lng": 18.0549223197085
          }
        }
      },
      "icon": "https://maps.gstatic.com/mapfiles/place_api/icons/v1/png_71/restaurant-71.png",
      "icon_background_color": "#FF9E67",
      "icon_mask_base_uri": "https://maps.gstatic.com/mapfiles/place_api/icons/v2/restaurant_pinlet",
      "name": "Grill",
      "photos": [
        {
          "height": 1366,
          "html_attributions": [
            "<a href=\"https://maps.google.com/maps/contrib/107418800834552230907\">Grill</a>"
          ],
          "photo_reference": "Aap_uEAF9oDqnGrxQlYvKbHGgHYOpTVbGelb-ijQv5_lxpzVEwi_jkZPa7HpNkTnck0CI11pyUf41urbhsPW35WmgP2Wa9h7ALm7FHDMV-lLM8ouI6bXD5xXWpjyNLTPCmd4nSUOzrN05JPNsEb8Ln1_6CtS2_0lQLCabL3PYxjLuPp1ht79",
          "width": 2048
        }
      ],
      "place_id": "ChIJJapDCWadX0YRfBHZtuqDqeo",
      "plus_code": {
        "compound_code": "83Q4+HF Stockholm, Sweden",
        "global_code": "9FFW83Q4+HF"
      },
      "price_level": 2,
      "rating": 4.1,
      "reference": "ChIJJapDCWadX0YRfBHZtuqDqeo",
      "scope": "GOOGLE",
      "types": [
        "restaurant",
        "bar",
        "food",
        "point_of_interest",
        "establishment"
      ],
      "user_ratings_total": 1879,
      "vicinity": "Drottninggatan 89, Stockholm"
    },
    {
      "business_status": "OPERATIONAL",
      "geometry": {
        "location": {
          "lat": 59.34060830000001,
          "lng": 18.0602083
        },
        "viewport": {
          "northeast": {
            "lat": 59.3419843302915,
            "lng": 18.06159223029151
          },
          "southwest": {
            "lat": 59.33928636970849,
            "lng": 18.0588942697085
          }
        }
      },
      "icon": "https://maps.gstatic.com/mapfiles/place_api/icons/v1/png_71/shopping-71.png",
      "icon_background_color": "#4B96F3",
      "icon_mask_base_uri": "https://maps.gstatic.com/mapfiles/place_api/icons/v2/shopping_pinlet",
      "name": "Arirang",
      "opening_hours": {
        "open_now": true
      },
      "photos": [
        {
          "height": 4912,
          "html_attributions": [
            "<a href=\"https://maps.google.com/maps/contrib/115090841130542812023\">Magnus S</a>"
          ],
          "photo_reference": "Aap_uEBVwbyHSULux1WYUZCgV5Bkn1IfeVgxjLkbDXbDrS0422q2OuQvUU3EjUT8v6inU7iB31ewGoIzU8npbx3V0dOoBZNLuhukTZeE8q5w_cKdvqRLYhUOINzXvaOkzrLowVDiW7Vc7csJp_DsVgZk48ZjpD9v-be6Uj0aMeUwDBE9h2hS",
          "width": 7360
        }
      ],
      "place_id": "ChIJGbWBlGidX0YRJzaVDQ1xUQA",
      "plus_code": {
        "compound_code": "83R6+63 Stockholm, Sweden",
        "global_code": "9FFW83R6+63"
      },
      "price_level": 2,
      "rating": 4.2,
      "reference": "ChIJGbWBlGidX0YRJzaVDQ1xUQA",
      "scope": "GOOGLE",
      "types": [
        "grocery_or_supermarket",
        "restaurant",
        "food",
        "point_of_interest",
        "store",
        "establishment"
      ],
      "user_ratings_total": 654,
      "vicinity": "Luntmakargatan 65, Stockholm"
    },
    {
      "business_status": "OPERATIONAL",
      "geometry": {
        "location": {
          "lat": 59.3400841,
          "lng": 18.06070519999999
        },
        "viewport": {
          "northeast": {
            "lat": 59.3414330802915,
            "lng": 18.0620541802915
          },
          "southwest": {
            "lat": 59.3387351197085,
            "lng": 18.05935621970849
          }
        }
      },
      "icon": "https://maps.gstatic.com/mapfiles/place_api/icons/v1/png_71/restaurant-71.png",
      "icon_background_color": "#FF9E67",
      "icon_mask_base_uri": "https://maps.gstatic.com/mapfiles/place_api/icons/v2/restaurant_pinlet",
      "name": "Pings Sakura",
      "opening_hours": {
        "open_now": false
      },
      "photos": [
        {
          "height": 4912,
          "html_attributions": [
            "<a href=\"https://maps.google.com/maps/contrib/115090841130542812023\">Magnus S</a>"
          ],
          "photo_reference": "Aap_uEBXYoCn3ItzrsPI6xcaF5UIQs5PNEGQw7t1Yfc-ox_0MGa4OVTh_UlHU81GRFL7JKvhm4ZnqOeUaU0lTuK0wI0VxAiGcG8ow3eaSjwS1he9oIYpk58PIU17P8l_LfvDTNIorZGAika6uyfcMyu6XdrA77fgdme-BfZMGVLHhc4C8vJ6",
          "width": 7360
        }
      ],
      "place_id": "ChIJK-p2hmidX0YRKiWiU_OncHI",
      "plus_code": {
        "compound_code": "83R6+27 Stockholm, Sweden",
        "global_code": "9FFW83R6+27"
      },
      "price_level": 2,
      "rating": 4.5,
      "reference": "ChIJK-p2hmidX0YRKiWiU_OncHI",
      "scope": "GOOGLE",
      "types": [
        "restaurant",
        "food",
        "point_of_interest",
        "establishment"
      ],
      "user_ratings_total": 435,
      "vicinity": "Luntmakargatan 59, Stockholm"
    },
    {
      "business_status": "OPERATIONAL",
      "geometry": {
        "location": {
          "lat": 59.3387043,
          "lng": 18.0570522
        },
        "viewport": {
          "northeast": {
            "lat": 59.3400839802915,
            "lng": 18.0583655802915
          },
          "southwest": {
            "lat": 59.33738601970849,
            "lng": 18.0556676197085
          }
        }
      },
      "icon": "https://maps.gstatic.com/mapfiles/place_api/icons/v1/png_71/restaurant-71.png",
      "icon_background_color": "#FF9E67",
      "icon_mask_base_uri": "https://maps.gstatic.com/mapfiles/place_api/icons/v2/restaurant_pinlet",
      "name": "Rolfs Kök",
      "opening_hours": {
        "open_now": true
      },
      "photos": [
        {
          "height": 2102,
          "html_attributions": [
            "<a href=\"https://maps.google.com/maps/contrib/104150270818501039352\">Arne Zetterberg</a>"
          ],
          "photo_reference": "Aap_uEA0PiNHBOfLBJsBIBWdb3lYw6Vehssq_UO3ls40ixGVoWDYpn0nfTe6IGEiXpiuubswibCXM4sYP9CTb0MbyYBrYUNPETe0mFYb5fGoq6K8susyottdmMTDD3xC7Nyme9I27MxryGrd_BB55PWf1FPoKUj_N09hSYGWgPKwuziSzTly",
          "width": 2856
        }
      ],
      "place_id": "ChIJk3aGEmadX0YRvjUbL0oedgk",
      "plus_code": {
        "compound_code": "83Q4+FR Stockholm, Sweden",
        "global_code": "9FFW83Q4+FR"
      },
      "price_level": 3,
      "rating": 4.5,
      "reference": "ChIJk3aGEmadX0YRvjUbL0oedgk",
      "scope": "GOOGLE",
      "types": [
        "restaurant",
        "food",
        "point_of_interest",
        "establishment"
      ],
      "user_ratings_total": 1850,
      "vicinity": "Tegnérgatan 41, Stockholm"
    },
    {
      "business_status": "OPERATIONAL",
      "geometry": {
        "location": {
          "lat": 59.3416939,
          "lng": 18.0625442
        },
        "viewport": {
          "northeast": {
            "lat": 59.34306558029149,
            "lng": 18.0639807802915
          },
          "southwest": {
            "lat": 59.34036761970849,
            "lng": 18.0612828197085
          }
        }
      },
      "icon": "https://maps.gstatic.com/mapfiles/place_api/icons/v1/png_71/restaurant-71.png",
      "icon_background_color": "#FF9E67",
      "icon_mask_base_uri": "https://maps.gstatic.com/mapfiles/place_api/icons/v2/restaurant_pinlet",
      "name": "Restaurang Farang",
      "opening_hours": {
        "open_now": false
      },
      "photos": [
        {
          "height": 4912,
          "html_attributions": [
            "<a href=\"https://maps.google.com/maps/contrib/115090841130542812023\">Magnus S</a>"
          ],
          "photo_reference": "Aap_uECRhEFdu2dFx_GgrutAXxThkb7qjsDCLR6KX1g9Ro41KkyTBkTEhHS10oFxw-zb_oLsFmjXaydK2qq1SgOO5ldB2ip1S2chbue0ZS1FxWtesuqbvv1Da7yYQXeO6QyWswHxnNvjAh31EfJWBUXG1eTvj9NM_lp4tN25WbPqon2flYkk",
          "width": 7360
        }
      ],
      "place_id": "ChIJG2kmVmidX0YRSNg4ivFMQ7w",
      "plus_code": {
        "compound_code": "83R7+M2 Stockholm, Sweden",
        "global_code": "9FFW83R7+M2"
      },
      "price_level": 3,
      "rating": 4.5,
      "reference": "ChIJG2kmVmidX0YRSNg4ivFMQ7w",
      "scope": "GOOGLE",
      "types": [
        "restaurant",
        "food",
        "point_of_interest",
        "establishment"
      ],
      "user_ratings_total": 1505,
      "vicinity": "Tulegatan 7, Stockholm"
    },
    {
      "business_status": "OPERATIONAL",
      "geometry": {
        "location": {
          "lat": 59.3442286,
          "lng": 18.0647674
        },
        "viewport": {
          "northeast": {
            "lat": 59.3458963302915,
            "lng": 18.06547713029151
          },
          "southwest": {
            "lat": 59.34319836970849,
            "lng": 18.0627791697085
          }
        }
      },
      "icon": "https://maps.gstatic.com/mapfiles/place_api/icons/v1/png_71/restaurant-71.png",
      "icon_background_color": "#FF9E67",
      "icon_mask_base_uri": "https://maps.gstatic.com/mapfiles/place_api/icons/v2/restaurant_pinlet",
      "name": "Ciao Ciao Due",
      "opening_hours": {
        "open_now": true
      },
      "photos": [
        {
          "height": 619,
          "html_attributions": [
            "<a href=\"https://maps.google.com/maps/contrib/108222874710129790003\">Ciao Ciao Due</a>"
          ],
          "photo_reference": "Aap_uECfScoANmRTyWowEez5HBopKGkd6jmjmWDCCJqEzIytr3JejXwSUbfr3FFQXWJs8Q2H3Gec0yS-D9t1gVkUc_QxpX7WAAOk4J01fZSbU2jbCa2gqMRF0AYslWi4UJ7KK7uRjuEzVSSFOEav9VsC2NUeO6fxjkHn9SR9rZDVNfq7Ka22",
          "width": 1098
        }
      ],
      "place_id": "ChIJ6xEBhWmdX0YRfNrECZ2eAbA",
      "plus_code": {
        "compound_code": "83V7+MW Stockholm, Sweden",
        "global_code": "9FFW83V7+MW"
      },
      "price_level": 2,
      "rating": 4.2,
      "reference": "ChIJ6xEBhWmdX0YRfNrECZ2eAbA",
      "scope": "GOOGLE",
      "types": [
        "restaurant",
        "food",
        "point_of_interest",
        "establishment"
      ],
      "user_ratings_total": 532,
      "vicinity": "Karlavägen 8, Stockholm"
    },
    {
      "business_status": "OPERATIONAL",
      "geometry": {
        "location": {
          "lat": 59.3459568,
          "lng": 18.0589325
        },
        "viewport": {
          "northeast": {
            "lat": 59.34722858029149,
            "lng": 18.0603244802915
          },
          "southwest": {
            "lat": 59.34453061970848,
            "lng": 18.0576265197085
          }
        }
      },
      "icon": "https://maps.gstatic.com/mapfiles/place_api/icons/v1/png_71/restaurant-71.png",
      "icon_background_color": "#FF9E67",
      "icon_mask_base_uri": "https://maps.gstatic.com/mapfiles/place_api/icons/v2/restaurant_pinlet",
      "name": "Svartengrens",
      "opening_hours": {
        "open_now": false
      },
      "photos": [
        {
          "height": 3840,
          "html_attributions": [
            "<a href=\"https://maps.google.com/maps/contrib/117271530256811318032\">Dej DJ</a>"
          ],
          "photo_reference": "Aap_uEBZnXFqroV_SjvgRTjIyOawY9GQarYEofvodnqbqHZI1CAC0JaNHjcpMyJJD5OkEKvi7uXYIhWswgs0Akn5lF0sx2m_M7XPt9LihzlERXuzoRvK8q5-dhTL1vySB4RzS2ncOkYcpBhBntRfc0gk5NAZCln73rCO7rhyFi1uZ2aZZw3k",
          "width": 5120
        }
      ],
      "place_id": "ChIJSy-mHmydX0YRtq74szDmhJc",
      "plus_code": {
        "compound_code": "83W5+9H Stockholm, Sweden",
        "global_code": "9FFW83W5+9H"
      },
      "price_level": 3,
      "rating": 4.5,
      "reference": "ChIJSy-mHmydX0YRtq74szDmhJc",
      "scope": "GOOGLE",
      "types": [
        "restaurant",
        "food",
        "point_of_interest",
        "establishment"
      ],
      "user_ratings_total": 451,
      "vicinity": "Tulegatan 24, Stockholm"
    },
    {
      "business_status": "OPERATIONAL",
      "geometry": {
        "location": {
          "lat": 59.34455560000001,
          "lng": 18.0568594
        },
        "viewport": {
          "northeast": {
            "lat": 59.3458727302915,
            "lng": 18.0583672302915
          },
          "southwest": {
            "lat": 59.34317476970848,
            "lng": 18.0556692697085
          }
        }
      },
      "icon": "https://maps.gstatic.com/mapfiles/place_api/icons/v1/png_71/bar-71.png",
      "icon_background_color": "#FF9E67",
      "icon_mask_base_uri": "https://maps.gstatic.com/mapfiles/place_api/icons/v2/bar_pinlet",
      "name": "The Flying Horse",
      "opening_hours": {
        "open_now": true
      },
      "photos": [
        {
          "height": 4912,
          "html_attributions": [
            "<a href=\"https://maps.google.com/maps/contrib/115090841130542812023\">Magnus S</a>"
          ],
          "photo_reference": "Aap_uEB6S0BLTh9mRiu8YHN2TRX1Yc14c1eIKN0aFj7qS5Y6H1AxKMURBgghk20Jd6e_FNBQUkXZYUfAYjZ0gcxxKG-f0osYZ6fSUlPonZxm1IkDhm0pn0SDZCIoBEVkwILWqDU6EU7vaOXwTbctoidRZ0IGeXxK2k6bM33b1LIYHA_zz56v",
          "width": 7360
        }
      ],
      "place_id": "ChIJF7NnlW6dX0YRmXngjCZNhDY",
      "plus_code": {
        "compound_code": "83V4+RP Stockholm, Sweden",
        "global_code": "9FFW83V4+RP"
      },
      "price_level": 2,
      "rating": 3.5,
      "reference": "ChIJF7NnlW6dX0YRmXngjCZNhDY",
      "scope": "GOOGLE",
      "types": [
        "bar",
        "restaurant",
        "food",
        "point_of_interest",
        "establishment"
      ],
      "user_ratings_total": 856,
      "vicinity": "Odengatan 44, Stockholm"
    },
    {
      "business_status": "OPERATIONAL",
      "geometry": {
        "location": {
          "lat": 59.3433333,
          "lng": 18.0522222
        },
        "viewport": {
          "northeast": {
            "lat": 59.34452898029151,
            "lng": 18.0536440302915
          },
          "southwest": {
            "lat": 59.3418310197085,
            "lng": 18.0509460697085
          }
        }
      },
      "icon": "https://maps.gstatic.com/mapfiles/place_api/icons/v1/png_71/restaurant-71.png",
      "icon_background_color": "#FF9E67",
      "icon_mask_base_uri": "https://maps.gstatic.com/mapfiles/place_api/icons/v2/restaurant_pinlet",
      "name": "Itamae",
      "opening_hours": {
        "open_now": true
      },
      "photos": [
        {
          "height": 2736,
          "html_attributions": [
            "<a href=\"https://maps.google.com/maps/contrib/109946406670459143357\">Extreme Power</a>"
          ],
          "photo_reference": "Aap_uEBF38q5UoaBEgsu4Yg1_Ad-6_63rdmmcHt6-Y7WPlJVMAfS3JjaMAb1vDOp2fKOCwdK5SQwlINWw_YZSPDOJn-Q-858hvrRZkGOReDMM2lrBRE0tI6tyZG0CzCXYIGqxntpbMIMhO2lhzLpKu9YjGEvbVXuZYFNDNm7ZYnrTa0NpIPZ",
          "width": 3648
        }
      ],
      "place_id": "ChIJWbN_sW-dX0YRV5tsySdz2rs",
      "plus_code": {
        "compound_code": "83V2+8V Stockholm, Sweden",
        "global_code": "9FFW83V2+8V"
      },
      "price_level": 2,
      "rating": 3.7,
      "reference": "ChIJWbN_sW-dX0YRV5tsySdz2rs",
      "scope": "GOOGLE",
      "types": [
        "restaurant",
        "food",
        "point_of_interest",
        "establishment"
      ],
      "user_ratings_total": 410,
      "vicinity": "Odengatan 62, Stockholm"
    },
    {
      "business_status": "OPERATIONAL",
      "geometry": {
        "location": {
          "lat": 59.34048439999999,
          "lng": 18.0653723
        },
        "viewport": {
          "northeast": {
            "lat": 59.3418760302915,
            "lng": 18.0668738302915
          },
          "southwest": {
            "lat": 59.33917806970849,
            "lng": 18.0641758697085
          }
        }
      },
      "icon": "https://maps.gstatic.com/mapfiles/place_api/icons/v1/png_71/restaurant-71.png",
      "icon_background_color": "#FF9E67",
      "icon_mask_base_uri": "https://maps.gstatic.com/mapfiles/place_api/icons/v2/restaurant_pinlet",
      "name": "Shahrzad",
      "opening_hours": {
        "open_now": true
      },
      "photos": [
        {
          "height": 1365,
          "html_attributions": [
            "<a href=\"https://maps.google.com/maps/contrib/103374034200970051345\">Shahrzad</a>"
          ],
          "photo_reference": "Aap_uEBr28dgsyV4P2Oy_nOypDuQceXkV2RRI-tzOjC5iQMwMgyQNZ1TM1mGL1av4OF5KTtJ-AlUPIpxkqGYk0zpzuTAP3G7Qo7fYa9KIBaq6ouzBAtXX8PYUblXOYpy61SHXt43BBM45RWAhKezgjKDcfpsJnvDjUOOGX_P-7RPBWrkZerY",
          "width": 2048
        }
      ],
      "place_id": "ChIJU5GKPGidX0YRPMxXLYr6dlw",
      "plus_code": {
        "compound_code": "83R8+54 Stockholm, Sweden",
        "global_code": "9FFW83R8+54"
      },
      "price_level": 2,
      "rating": 4.2,
      "reference": "ChIJU5GKPGidX0YRPMxXLYr6dlw",
      "scope": "GOOGLE",
      "types": [
        "restaurant",
        "food",
        "point_of_interest",
        "establishment"
      ],
      "user_ratings_total": 1666,
      "vicinity": "Regeringsgatan 111, Stockholm"
    },
    {
      "business_status": "OPERATIONAL",
      "geometry": {
        "location": {
          "lat": 59.345821,
          "lng": 18.05350719999999
        },
        "viewport": {
          "northeast": {
            "lat": 59.3471699802915,
            "lng": 18.0548561802915
          },
          "southwest": {
            "lat": 59.3444720197085,
            "lng": 18.05215821970849
          }
        }
      },
      "icon": "https://maps.gstatic.com/mapfiles/place_api/icons/v1/png_71/restaurant-71.png",
      "icon_background_color": "#FF9E67",
      "icon_mask_base_uri": "https://maps.gstatic.com/mapfiles/place_api/icons/v2/restaurant_pinlet",
      "name": "Kokyo",
      "opening_hours": {
        "open_now": false
      },
      "photos": [
        {
          "height": 3024,
          "html_attributions": [
            "<a href=\"https://maps.google.com/maps/contrib/105547748316285867589\">Adrian Andrei</a>"
          ],
          "photo_reference": "Aap_uEB1XWq5mU4jv9XYmR5Ih8IJrzLEphYSgp6ZAfbN0nuLlwGPurKDcQZqOFNsSB_-jUcfkK3nwp8DfP8O6ITWXM8N0pPHWbjHDAD_ncFwvYPRpN9GcjLzCNbR_B1DJp-itLhuZ0G_A1-qI0WYfVmaTc9afjIXV9c4aD4l1XqR-Ow6LTu2",
          "width": 4032
        }
      ],
      "place_id": "ChIJxdnncW6dX0YR-XcNGxUdWFs",
      "plus_code": {
        "compound_code": "83W3+8C Stockholm, Sweden",
        "global_code": "9FFW83W3+8C"
      },
      "price_level": 2,
      "rating": 4.3,
      "reference": "ChIJxdnncW6dX0YR-XcNGxUdWFs",
      "scope": "GOOGLE",
      "types": [
        "restaurant",
        "food",
        "point_of_interest",
        "establishment"
      ],
      "user_ratings_total": 375,
      "vicinity": "Sveavägen 105, Stockholm"
    },
    {
      "business_status": "OPERATIONAL",
      "geometry": {
        "location": {
          "lat": 59.3440633,
          "lng": 18.054783
        },
        "viewport": {
          "northeast": {
            "lat": 59.34549778029152,
            "lng": 18.0563959302915
          },
          "southwest": {
            "lat": 59.3427998197085,
            "lng": 18.0536979697085
          }
        }
      },
      "icon": "https://maps.gstatic.com/mapfiles/place_api/icons/v1/png_71/restaurant-71.png",
      "icon_background_color": "#FF9E67",
      "icon_mask_base_uri": "https://maps.gstatic.com/mapfiles/place_api/icons/v2/restaurant_pinlet",
      "name": "Hard Rock Cafe",
      "opening_hours": {
        "open_now": true
      },
      "photos": [
        {
          "height": 2268,
          "html_attributions": [
            "<a href=\"https://maps.google.com/maps/contrib/107659989625639769278\">Brandenburger</a>"
          ],
          "photo_reference": "Aap_uECA3Yahbd2DDdxVjfL_QOCnAQhaoyNe2CJB3VchGVcy0n5KZ8AX2UOHuK0DFCOIMDBUPfd3MoGSir7KKPg9g2D0zWCAEt2Biq889WdPanpGwFfJXISOXzhNk2qls9lPqiU67dlyrzNjnoi5YZoN7AusMYFzCI2srd4OHk6I0J0o-hxG",
          "width": 4032
        }
      ],
      "place_id": "ChIJzQQ0926dX0YR6GCiuvi-RrU",
      "plus_code": {
        "compound_code": "83V3+JW Stockholm, Sweden",
        "global_code": "9FFW83V3+JW"
      },
      "price_level": 2,
      "rating": 4,
      "reference": "ChIJzQQ0926dX0YR6GCiuvi-RrU",
      "scope": "GOOGLE",
      "types": [
        "restaurant",
        "food",
        "point_of_interest",
        "establishment"
      ],
      "user_ratings_total": 4463,
      "vicinity": "Sveavägen 75, Stockholm"
    },
    {
      "business_status": "OPERATIONAL",
      "geometry": {
        "location": {
          "lat": 59.34702960000001,
          "lng": 18.0608269
        },
        "viewport": {
          "northeast": {
            "lat": 59.34842828029151,
            "lng": 18.0623781802915
          },
          "southwest": {
            "lat": 59.3457303197085,
            "lng": 18.05968021970849
          }
        }
      },
      "icon": "https://maps.gstatic.com/mapfiles/place_api/icons/v1/png_71/restaurant-71.png",
      "icon_background_color": "#FF9E67",
      "icon_mask_base_uri": "https://maps.gstatic.com/mapfiles/place_api/icons/v2/restaurant_pinlet",
      "name": "Ramen Ki-Mama",
      "opening_hours": {
        "open_now": true
      },
      "photos": [
        {
          "height": 3664,
          "html_attributions": [
            "<a href=\"https://maps.google.com/maps/contrib/115090841130542812023\">Magnus S</a>"
          ],
          "photo_reference": "Aap_uEAKGxmuLWYsNlTHVfnAZr4PCJeoUxT8SCemAL7GwgXwoA2ZOiHeG3rq0mnf43iKXad-1h_dNwltrhwBDYQQi-h90hZCNygTZg3ADNwCEcAPBlQf58KcJlVcKmSg6Dl7RSLK7quyedie0HWCLne8jO3AvlqpgKxTLM1uInMjWOup1xkv",
          "width": 5488
        }
      ],
      "place_id": "ChIJyTBmdGydX0YRMCR3ae43Mj8",
      "plus_code": {
        "compound_code": "83W6+R8 Stockholm, Sweden",
        "global_code": "9FFW83W6+R8"
      },
      "price_level": 2,
      "rating": 4.1,
      "reference": "ChIJyTBmdGydX0YRMCR3ae43Mj8",
      "scope": "GOOGLE",
      "types": [
        "restaurant",
        "food",
        "point_of_interest",
        "establishment"
      ],
      "user_ratings_total": 1070,
      "vicinity": "Birger Jarlsgatan 93, Stockholm"
    },
    {
      "business_status": "CLOSED_TEMPORARILY",
      "geometry": {
        "location": {
          "lat": 59.3387105,
          "lng": 18.0608824
        },
        "viewport": {
          "northeast": {
            "lat": 59.34012138029151,
            "lng": 18.0623202302915
          },
          "southwest": {
            "lat": 59.3374234197085,
            "lng": 18.05962226970849
          }
        }
      },
      "icon": "https://maps.gstatic.com/mapfiles/place_api/icons/v1/png_71/cafe-71.png",
      "icon_background_color": "#FF9E67",
      "icon_mask_base_uri": "https://maps.gstatic.com/mapfiles/place_api/icons/v2/cafe_pinlet",
      "name": "Café 60",
      "permanently_closed": true,
      "photos": [
        {
          "height": 2736,
          "html_attributions": [
            "<a href=\"https://maps.google.com/maps/contrib/109946406670459143357\">Extreme Power</a>"
          ],
          "photo_reference": "Aap_uEA8Eq7XKHLBiCTH2VnUfuvSMgeu4-b4BDy_TgPrCc_xIqBuAPBvBwcQSNHguwu86C1Zy2fzKalV-uSRsy_CDSgApoBz4Ubc1i914EaHcm2VOccGNx1x9WyDLJ9ZyoFdlZ8TwkJ8rQ0DyaDZz2pYCRXhezr9TLrh6RAJzY1mdSEbh1Nj",
          "width": 3648
        }
      ],
      "place_id": "ChIJV85pzWedX0YRfsgWA2lBANY",
      "plus_code": {
        "compound_code": "83Q6+F9 Stockholm, Sweden",
        "global_code": "9FFW83Q6+F9"
      },
      "price_level": 2,
      "rating": 3.8,
      "reference": "ChIJV85pzWedX0YRfsgWA2lBANY",
      "scope": "GOOGLE",
      "types": [
        "cafe",
        "restaurant",
        "food",
        "point_of_interest",
        "establishment"
      ],
      "user_ratings_total": 1254,
      "vicinity": "Sveavägen 60, Stockholm"
    },
    {
      "business_status": "OPERATIONAL",
      "geometry": {
        "location": {
          "lat": 59.34060219999999,
          "lng": 18.0583968
        },
        "viewport": {
          "northeast": {
            "lat": 59.34198593029149,
            "lng": 18.05988773029151
          },
          "southwest": {
            "lat": 59.33928796970848,
            "lng": 18.0571897697085
          }
        }
      },
      "icon": "https://maps.gstatic.com/mapfiles/place_api/icons/v1/png_71/bar-71.png",
      "icon_background_color": "#FF9E67",
      "icon_mask_base_uri": "https://maps.gstatic.com/mapfiles/place_api/icons/v2/bar_pinlet",
      "name": "Retro Sportbar & Restaurang - The Crib",
      "opening_hours": {
        "open_now": false
      },
      "photos": [
        {
          "height": 3024,
          "html_attributions": [
            "<a href=\"https://maps.google.com/maps/contrib/108682295088839321358\">Foodprints</a>"
          ],
          "photo_reference": "Aap_uEB1OPfBHUDauTnacOXMiG59KbAvRQbxhhsyrOdVPhOndH2iGUMs-bPSuKIrqmDlzbVLjkoac9UeS8hHwxF_KBCfUarwiQboNK9EXRaC8rTHCjg_Zu4ywRWTYLCXdAfDpWaoFLBCm2YcGSIH9-QwLtA2qdgOe5nLAJjuCWc7h-DxyM0E",
          "width": 4032
        }
      ],
      "place_id": "ChIJH6NJu2idX0YRKVYeM-ajhsw",
      "plus_code": {
        "compound_code": "83R5+69 Stockholm, Sweden",
        "global_code": "9FFW83R5+69"
      },
      "price_level": 1,
      "rating": 3.6,
      "reference": "ChIJH6NJu2idX0YRKVYeM-ajhsw",
      "scope": "GOOGLE",
      "types": [
        "bar",
        "restaurant",
        "food",
        "point_of_interest",
        "establishment"
      ],
      "user_ratings_total": 689,
      "vicinity": "Sveavägen 55, Stockholm"
    },
    {
      "business_status": "OPERATIONAL",
      "geometry": {
        "location": {
          "lat": 59.34497519999999,
          "lng": 18.06002999999999
        },
        "viewport": {
          "northeast": {
            "lat": 59.34636338029151,
            "lng": 18.0614484302915
          },
          "southwest": {
            "lat": 59.3436654197085,
            "lng": 18.0587504697085
          }
        }
      },
      "icon": "https://maps.gstatic.com/mapfiles/place_api/icons/v1/png_71/shopping-71.png",
      "icon_background_color": "#4B96F3",
      "icon_mask_base_uri": "https://maps.gstatic.com/mapfiles/place_api/icons/v2/shopping_pinlet",
      "name": "Ostbutiken Odengatan & Matsalen Stockholms smörhall",
      "opening_hours": {
        "open_now": true
      },
      "photos": [
        {
          "height": 4032,
          "html_attributions": [
            "<a href=\"https://maps.google.com/maps/contrib/101000127172108652170\">Andres Canal</a>"
          ],
          "photo_reference": "Aap_uEDPPwIzNpsR-fD5ZpoOGNVfCJzK-uxsoZRubc_Lkj30VTRQ345Npe4qIzHXafgHpHyk9BRJLISBRcumeDHLr55qlFFWdNKs0f2-KF3zaskFHJgivoLEZz4IcwOeeiiP0qcoatFMWjEAYYnbuJbU3k_u24XARXcSyEbHJtDJnNNKE-sF",
          "width": 3024
        }
      ],
      "place_id": "ChIJq1w-U2mdX0YR6CCseBK1f6M",
      "plus_code": {
        "compound_code": "83V6+X2 Stockholm, Sweden",
        "global_code": "9FFW83V6+X2"
      },
      "rating": 4.6,
      "reference": "ChIJq1w-U2mdX0YR6CCseBK1f6M",
      "scope": "GOOGLE",
      "types": [
        "restaurant",
        "food",
        "point_of_interest",
        "store",
        "establishment"
      ],
      "user_ratings_total": 113,
      "vicinity": "Odengatan 33, Stockholm"
    },
    {
      "business_status": "OPERATIONAL",
      "geometry": {
        "location": {
          "lat": 59.34422000000001,
          "lng": 18.052521
        },
        "viewport": {
          "northeast": {
            "lat": 59.3455791302915,
            "lng": 18.05394963029151
          },
          "southwest": {
            "lat": 59.34288116970848,
            "lng": 18.0512516697085
          }
        }
      },
      "icon": "https://maps.gstatic.com/mapfiles/place_api/icons/v1/png_71/restaurant-71.png",
      "icon_background_color": "#FF9E67",
      "icon_mask_base_uri": "https://maps.gstatic.com/mapfiles/place_api/icons/v2/restaurant_pinlet",
      "name": "Bistrot Paname",
      "opening_hours": {
        "open_now": false
      },
      "photos": [
        {
          "height": 5193,
          "html_attributions": [
            "<a href=\"https://maps.google.com/maps/contrib/105416564362044407423\">Bistrot Paname</a>"
          ],
          "photo_reference": "Aap_uEDcA214C7qKYcP7lBySwFP4yJvy3HHbQm-ZWyuCXaSijipHpBCnacPmL2c_3zxsRexrMR5JMBY7GI9ywLg1tL5ZFSneAHlo4wXpYL6YJcccIuzBBAzYflBZlE7PY6E_ojOFTFIVHICLPIzss49IX1vHL5Wr4vVzLGc-4eLXi9DADNYC",
          "width": 7786
        }
      ],
      "place_id": "ChIJl1ajSG6dX0YRr4-nGEBwQiM",
      "plus_code": {
        "compound_code": "83V3+M2 Stockholm, Sweden",
        "global_code": "9FFW83V3+M2"
      },
      "price_level": 2,
      "rating": 4.5,
      "reference": "ChIJl1ajSG6dX0YRr4-nGEBwQiM",
      "scope": "GOOGLE",
      "types": [
        "restaurant",
        "food",
        "point_of_interest",
        "establishment"
      ],
      "user_ratings_total": 252,
      "vicinity": "Hagagatan 5, Stockholm"
    },
    {
      "business_status": "OPERATIONAL",
      "geometry": {
        "location": {
          "lat": 59.34170400000001,
          "lng": 18.057152
        },
        "viewport": {
          "northeast": {
            "lat": 59.34310668029151,
            "lng": 18.0587204802915
          },
          "southwest": {
            "lat": 59.34040871970849,
            "lng": 18.0560225197085
          }
        }
      },
      "icon": "https://maps.gstatic.com/mapfiles/place_api/icons/v1/png_71/restaurant-71.png",
      "icon_background_color": "#FF9E67",
      "icon_mask_base_uri": "https://maps.gstatic.com/mapfiles/place_api/icons/v2/restaurant_pinlet",
      "name": "AAA",
      "opening_hours": {
        "open_now": true
      },
      "place_id": "ChIJG9JcNG-dX0YRUnK8_0SbXVo",
      "reference": "ChIJG9JcNG-dX0YRUnK8_0SbXVo",
      "scope": "GOOGLE",
      "types": [
        "restaurant",
        "food",
        "point_of_interest",
        "establishment"
      ],
      "vicinity": "Box 7692, 10395 Stockholm, Stockholm"
    }
  ],
  "status": "OK"
}